current_code/dtw_accelerator_tb.vcd
$date
	Mon Apr 14 16:29:28 2025
$end
$version
	ModelSim Version 10.5b
$end
$timescale
	1ps
$end

$scope module dtw_tb $end
$var parameter 32 ! DATA_WIDTH $end
$var parameter 32 " SIZE $end
$var parameter 32 # BAND_RADIUS $end
$var parameter 32 $ BAND_SIZE $end
$var reg 1 % clk $end
$var reg 1 & rst_n $end
$var reg 32 ' camera [31:0] $end
$var reg 32 ( out_camera [31:0] $end
$var reg 32 ) refer [31:0] $end
$var reg 32 * out_refer [31:0] $end
$var wire 1 + score [31] $end
$var wire 1 , score [30] $end
$var wire 1 - score [29] $end
$var wire 1 . score [28] $end
$var wire 1 / score [27] $end
$var wire 1 0 score [26] $end
$var wire 1 1 score [25] $end
$var wire 1 2 score [24] $end
$var wire 1 3 score [23] $end
$var wire 1 4 score [22] $end
$var wire 1 5 score [21] $end
$var wire 1 6 score [20] $end
$var wire 1 7 score [19] $end
$var wire 1 8 score [18] $end
$var wire 1 9 score [17] $end
$var wire 1 : score [16] $end
$var wire 1 ; score [15] $end
$var wire 1 < score [14] $end
$var wire 1 = score [13] $end
$var wire 1 > score [12] $end
$var wire 1 ? score [11] $end
$var wire 1 @ score [10] $end
$var wire 1 A score [9] $end
$var wire 1 B score [8] $end
$var wire 1 C score [7] $end
$var wire 1 D score [6] $end
$var wire 1 E score [5] $end
$var wire 1 F score [4] $end
$var wire 1 G score [3] $end
$var wire 1 H score [2] $end
$var wire 1 I score [1] $end
$var wire 1 J score [0] $end
$var reg 1 K ready $end
$var integer 32 L i $end
$var integer 32 M j $end
$var integer 32 N test_count $end
$var reg 1 O test_passed $end
$var reg 1 P refer_ready $end
$var reg 1 Q camera_ready $end
$var reg 1 R write_camera $end
$var reg 1 S write_refer $end
$var wire 1 T done $end
$var wire 1 U empty_refer $end
$var wire 1 V empty_camera $end

$scope module dut $end
$var parameter 32 W DATA_WIDTH $end
$var parameter 32 X SIZE $end
$var parameter 32 Y BAND_RADIUS $end
$var parameter 32 Z BAND_SIZE $end
$var wire 1 [ clk $end
$var wire 1 \ rst_n $end
$var wire 1 ] refer [31] $end
$var wire 1 ^ refer [30] $end
$var wire 1 _ refer [29] $end
$var wire 1 ` refer [28] $end
$var wire 1 a refer [27] $end
$var wire 1 b refer [26] $end
$var wire 1 c refer [25] $end
$var wire 1 d refer [24] $end
$var wire 1 e refer [23] $end
$var wire 1 f refer [22] $end
$var wire 1 g refer [21] $end
$var wire 1 h refer [20] $end
$var wire 1 i refer [19] $end
$var wire 1 j refer [18] $end
$var wire 1 k refer [17] $end
$var wire 1 l refer [16] $end
$var wire 1 m refer [15] $end
$var wire 1 n refer [14] $end
$var wire 1 o refer [13] $end
$var wire 1 p refer [12] $end
$var wire 1 q refer [11] $end
$var wire 1 r refer [10] $end
$var wire 1 s refer [9] $end
$var wire 1 t refer [8] $end
$var wire 1 u refer [7] $end
$var wire 1 v refer [6] $end
$var wire 1 w refer [5] $end
$var wire 1 x refer [4] $end
$var wire 1 y refer [3] $end
$var wire 1 z refer [2] $end
$var wire 1 { refer [1] $end
$var wire 1 | refer [0] $end
$var wire 1 } camera [31] $end
$var wire 1 ~ camera [30] $end
$var wire 1 !! camera [29] $end
$var wire 1 "! camera [28] $end
$var wire 1 #! camera [27] $end
$var wire 1 $! camera [26] $end
$var wire 1 %! camera [25] $end
$var wire 1 &! camera [24] $end
$var wire 1 '! camera [23] $end
$var wire 1 (! camera [22] $end
$var wire 1 )! camera [21] $end
$var wire 1 *! camera [20] $end
$var wire 1 +! camera [19] $end
$var wire 1 ,! camera [18] $end
$var wire 1 -! camera [17] $end
$var wire 1 .! camera [16] $end
$var wire 1 /! camera [15] $end
$var wire 1 0! camera [14] $end
$var wire 1 1! camera [13] $end
$var wire 1 2! camera [12] $end
$var wire 1 3! camera [11] $end
$var wire 1 4! camera [10] $end
$var wire 1 5! camera [9] $end
$var wire 1 6! camera [8] $end
$var wire 1 7! camera [7] $end
$var wire 1 8! camera [6] $end
$var wire 1 9! camera [5] $end
$var wire 1 :! camera [4] $end
$var wire 1 ;! camera [3] $end
$var wire 1 <! camera [2] $end
$var wire 1 =! camera [1] $end
$var wire 1 >! camera [0] $end
$var reg 32 ?! score [31:0] $end
$var reg 1 @! ready_refer $end
$var reg 1 A! ready_camera $end
$var wire 1 B! ready $end
$var reg 1 C! done $end
$var reg 6 D! i [5:0] $end
$var reg 6 E! j [5:0] $end
$var reg 6 F! count [5:0] $end
$var reg 32 G! inp [31:0] $end
$var reg 32 H! last [31:0] $end
$var reg 32 I! band [31:0] $end
$var reg 32 J! out [31:0] $end
$var reg 32 K! dtw_calc_result [31:0] $end
$var reg 32 L! min_ab [31:0] $end
$var reg 32 M! min_abc [31:0] $end
$var reg 32 N! distance_result [31:0] $end
$var reg 32 O! refer_out [31:0] $end
$var reg 1 P! compute_enable $end
$var reg 1 Q! skip_computation $end
$var reg 1 R! first $end
$var reg 1 S! read_refer $end
$var reg 1 T! refer_full $end
$var reg 1 U! inc_done $end
$var reg 1 V! write_fifo $end
$var reg 1 W! shift $end
$var reg 6 X! next_i [5:0] $end
$var reg 6 Y! next_j [5:0] $end
$var reg 6 Z! next_count [5:0] $end
$var wire 1 [! shift_ready $end
$var reg 2 \! state [1:0] $end
$var reg 2 ]! next_state [1:0] $end

$scope module shift_reg $end
$var parameter 32 ^! R $end
$var parameter 32 _! WIDTH $end
$var reg 32 `! in [31:0] $end
$var reg 1 a! clk $end
$var reg 1 b! rst_n $end
$var reg 1 c! ready $end
$var reg 32 d! last [31:0] $end
$var reg 32 e! band [31:0] $end
$var reg 32 f! out [31:0] $end
$upscope $end

$scope module fifo $end
$var parameter 32 g! DEPTH $end
$var parameter 32 h! DATA_WIDTH $end
$var wire 1 [ clk $end
$var wire 1 \ rst_n $end
$var wire 1 i! rden $end
$var wire 1 j! wren $end
$var wire 1 ] i_data [31] $end
$var wire 1 ^ i_data [30] $end
$var wire 1 _ i_data [29] $end
$var wire 1 ` i_data [28] $end
$var wire 1 a i_data [27] $end
$var wire 1 b i_data [26] $end
$var wire 1 c i_data [25] $end
$var wire 1 d i_data [24] $end
$var wire 1 e i_data [23] $end
$var wire 1 f i_data [22] $end
$var wire 1 g i_data [21] $end
$var wire 1 h i_data [20] $end
$var wire 1 i i_data [19] $end
$var wire 1 j i_data [18] $end
$var wire 1 k i_data [17] $end
$var wire 1 l i_data [16] $end
$var wire 1 m i_data [15] $end
$var wire 1 n i_data [14] $end
$var wire 1 o i_data [13] $end
$var wire 1 p i_data [12] $end
$var wire 1 q i_data [11] $end
$var wire 1 r i_data [10] $end
$var wire 1 s i_data [9] $end
$var wire 1 t i_data [8] $end
$var wire 1 u i_data [7] $end
$var wire 1 v i_data [6] $end
$var wire 1 w i_data [5] $end
$var wire 1 x i_data [4] $end
$var wire 1 y i_data [3] $end
$var wire 1 z i_data [2] $end
$var wire 1 { i_data [1] $end
$var wire 1 | i_data [0] $end
$var reg 32 k! o_data [31:0] $end
$var reg 1 l! readytoread $end
$var reg 1 m! empty $end
$var wire 1 n! shift $end
$var reg 1 o! full $end
$var reg 3 p! read_ptr [2:0] $end
$var reg 3 q! count [2:0] $end
$var reg 1 r! wren_2 $end
$var reg 1 s! wren_3 $end
$upscope $end
$upscope $end

$scope module fiforefer $end
$var parameter 32 t! DEPTH $end
$var parameter 32 u! DATA_WIDTH $end
$var wire 1 v! clk $end
$var wire 1 w! rst_n $end
$var wire 1 x! rden $end
$var wire 1 y! wren $end
$var wire 1 z! i_data [31] $end
$var wire 1 {! i_data [30] $end
$var wire 1 |! i_data [29] $end
$var wire 1 }! i_data [28] $end
$var wire 1 ~! i_data [27] $end
$var wire 1 !" i_data [26] $end
$var wire 1 "" i_data [25] $end
$var wire 1 #" i_data [24] $end
$var wire 1 $" i_data [23] $end
$var wire 1 %" i_data [22] $end
$var wire 1 &" i_data [21] $end
$var wire 1 '" i_data [20] $end
$var wire 1 (" i_data [19] $end
$var wire 1 )" i_data [18] $end
$var wire 1 *" i_data [17] $end
$var wire 1 +" i_data [16] $end
$var wire 1 ," i_data [15] $end
$var wire 1 -" i_data [14] $end
$var wire 1 ." i_data [13] $end
$var wire 1 /" i_data [12] $end
$var wire 1 0" i_data [11] $end
$var wire 1 1" i_data [10] $end
$var wire 1 2" i_data [9] $end
$var wire 1 3" i_data [8] $end
$var wire 1 4" i_data [7] $end
$var wire 1 5" i_data [6] $end
$var wire 1 6" i_data [5] $end
$var wire 1 7" i_data [4] $end
$var wire 1 8" i_data [3] $end
$var wire 1 9" i_data [2] $end
$var wire 1 :" i_data [1] $end
$var wire 1 ;" i_data [0] $end
$var wire 1 <" o_data [31] $end
$var wire 1 =" o_data [30] $end
$var wire 1 >" o_data [29] $end
$var wire 1 ?" o_data [28] $end
$var wire 1 @" o_data [27] $end
$var wire 1 A" o_data [26] $end
$var wire 1 B" o_data [25] $end
$var wire 1 C" o_data [24] $end
$var wire 1 D" o_data [23] $end
$var wire 1 E" o_data [22] $end
$var wire 1 F" o_data [21] $end
$var wire 1 G" o_data [20] $end
$var wire 1 H" o_data [19] $end
$var wire 1 I" o_data [18] $end
$var wire 1 J" o_data [17] $end
$var wire 1 K" o_data [16] $end
$var wire 1 L" o_data [15] $end
$var wire 1 M" o_data [14] $end
$var wire 1 N" o_data [13] $end
$var wire 1 O" o_data [12] $end
$var wire 1 P" o_data [11] $end
$var wire 1 Q" o_data [10] $end
$var wire 1 R" o_data [9] $end
$var wire 1 S" o_data [8] $end
$var wire 1 T" o_data [7] $end
$var wire 1 U" o_data [6] $end
$var wire 1 V" o_data [5] $end
$var wire 1 W" o_data [4] $end
$var wire 1 X" o_data [3] $end
$var wire 1 Y" o_data [2] $end
$var wire 1 Z" o_data [1] $end
$var wire 1 [" o_data [0] $end
$var wire 1 \" full $end
$var wire 1 U empty $end
$var reg 11 ]" index [10:0] $end
$var reg 1 ^" emp $end
$var reg 1 _" ful $end
$var reg 32 `" o_data_temp [31:0] $end
$upscope $end

$scope module fifocamera $end
$var parameter 32 a" DEPTH $end
$var parameter 32 b" DATA_WIDTH $end
$var wire 1 c" clk $end
$var wire 1 d" rst_n $end
$var wire 1 e" rden $end
$var wire 1 f" wren $end
$var wire 1 g" i_data [31] $end
$var wire 1 h" i_data [30] $end
$var wire 1 i" i_data [29] $end
$var wire 1 j" i_data [28] $end
$var wire 1 k" i_data [27] $end
$var wire 1 l" i_data [26] $end
$var wire 1 m" i_data [25] $end
$var wire 1 n" i_data [24] $end
$var wire 1 o" i_data [23] $end
$var wire 1 p" i_data [22] $end
$var wire 1 q" i_data [21] $end
$var wire 1 r" i_data [20] $end
$var wire 1 s" i_data [19] $end
$var wire 1 t" i_data [18] $end
$var wire 1 u" i_data [17] $end
$var wire 1 v" i_data [16] $end
$var wire 1 w" i_data [15] $end
$var wire 1 x" i_data [14] $end
$var wire 1 y" i_data [13] $end
$var wire 1 z" i_data [12] $end
$var wire 1 {" i_data [11] $end
$var wire 1 |" i_data [10] $end
$var wire 1 }" i_data [9] $end
$var wire 1 ~" i_data [8] $end
$var wire 1 !# i_data [7] $end
$var wire 1 "# i_data [6] $end
$var wire 1 ## i_data [5] $end
$var wire 1 $# i_data [4] $end
$var wire 1 %# i_data [3] $end
$var wire 1 &# i_data [2] $end
$var wire 1 '# i_data [1] $end
$var wire 1 (# i_data [0] $end
$var wire 1 )# o_data [31] $end
$var wire 1 *# o_data [30] $end
$var wire 1 +# o_data [29] $end
$var wire 1 ,# o_data [28] $end
$var wire 1 -# o_data [27] $end
$var wire 1 .# o_data [26] $end
$var wire 1 /# o_data [25] $end
$var wire 1 0# o_data [24] $end
$var wire 1 1# o_data [23] $end
$var wire 1 2# o_data [22] $end
$var wire 1 3# o_data [21] $end
$var wire 1 4# o_data [20] $end
$var wire 1 5# o_data [19] $end
$var wire 1 6# o_data [18] $end
$var wire 1 7# o_data [17] $end
$var wire 1 8# o_data [16] $end
$var wire 1 9# o_data [15] $end
$var wire 1 :# o_data [14] $end
$var wire 1 ;# o_data [13] $end
$var wire 1 <# o_data [12] $end
$var wire 1 =# o_data [11] $end
$var wire 1 ># o_data [10] $end
$var wire 1 ?# o_data [9] $end
$var wire 1 @# o_data [8] $end
$var wire 1 A# o_data [7] $end
$var wire 1 B# o_data [6] $end
$var wire 1 C# o_data [5] $end
$var wire 1 D# o_data [4] $end
$var wire 1 E# o_data [3] $end
$var wire 1 F# o_data [2] $end
$var wire 1 G# o_data [1] $end
$var wire 1 H# o_data [0] $end
$var wire 1 I# full $end
$var wire 1 V empty $end
$var reg 11 J# index [10:0] $end
$var reg 1 K# emp $end
$var reg 1 L# ful $end
$var reg 32 M# o_data_temp [31:0] $end
$upscope $end
$upscope $end
$enddefinitions $end
#0
$dumpvars
0%
0&
b0 '
b0 (
b0 )
b0 *
0K
1O
0P
0Q
0R
0S
b0 ?!
0@!
0A!
0C!
b0 D!
b0 E!
b0 F!
bx G!
b1111111111111111111111111111 H!
b1111111111111111111111111111 I!
b1111111111111111111111111111 J!
b0 K!
b1111111111111111111111111111 L!
b1111111111111111111111111111 M!
bx N!
b0 O!
0P!
0Q!
1R!
0S!
0T!
0U!
0V!
0W!
b0 X!
b0 Y!
b0 Z!
b0 `!
0a!
0b!
0c!
b1111111111111111111111111111 d!
b1111111111111111111111111111 e!
b1111111111111111111111111111 f!
b0 k!
0l!
1m!
0o!
b11 p!
b0 q!
0r!
0s!
b0 \!
b0 ]!
b0 ]"
1^"
0_"
b0 `"
b0 J#
1K#
0L#
b0 M#
b100000 !
b10100 "
b100 #
b1001 $
b100000 W
b10100 X
b100 Y
b1001 Z
b1001 ^!
b100000 _!
b100 g!
b100000 h!
b10100 t!
b100000 u!
b10100 a"
b100000 b"
bx L
bx M
b0 N
0J
0I
0H
0G
0F
0E
0D
0C
0B
0A
0@
0?
0>
0=
0<
0;
0:
09
08
07
06
05
04
03
02
01
00
0/
0.
0-
0,
0+
0T
0[!
1U
1V
0[
0\
0>!
0=!
0<!
0;!
0:!
09!
08!
07!
06!
05!
04!
03!
02!
01!
00!
0/!
0.!
0-!
0,!
0+!
0*!
0)!
0(!
0'!
0&!
0%!
0$!
0#!
0"!
0!!
0~
0}
0|
0{
0z
0y
0x
0w
0v
0u
0t
0s
0r
0q
0p
0o
0n
0m
0l
0k
0j
0i
0h
0g
0f
0e
0d
0c
0b
0a
0`
0_
0^
0]
0B!
0i!
0j!
0n!
0v!
0w!
0x!
0y!
0;"
0:"
09"
08"
07"
06"
05"
04"
03"
02"
01"
00"
0/"
0."
0-"
0,"
0+"
0*"
0)"
0("
0'"
0&"
0%"
0$"
0#"
0""
0!"
0~!
0}!
0|!
0{!
0z!
0["
0Z"
0Y"
0X"
0W"
0V"
0U"
0T"
0S"
0R"
0Q"
0P"
0O"
0N"
0M"
0L"
0K"
0J"
0I"
0H"
0G"
0F"
0E"
0D"
0C"
0B"
0A"
0@"
0?"
0>"
0="
0<"
0\"
0c"
0d"
0e"
0f"
0(#
0'#
0&#
0%#
0$#
0##
0"#
0!#
0~"
0}"
0|"
0{"
0z"
0y"
0x"
0w"
0v"
0u"
0t"
0s"
0r"
0q"
0p"
0o"
0n"
0m"
0l"
0k"
0j"
0i"
0h"
0g"
0H#
0G#
0F#
0E#
0D#
0C#
0B#
0A#
0@#
0?#
0>#
0=#
0<#
0;#
0:#
09#
08#
07#
06#
05#
04#
03#
02#
01#
00#
0/#
0.#
0-#
0,#
0+#
0*#
0)#
0I#
$end
#5000
1%
1c"
1v!
1[
1a!
#10000
0%
0c"
0v!
0[
0a!
1&
1d"
1w!
1\
1b!
#15000
1%
1c"
1v!
1[
1a!
b1 N
b0 L
b10 '
b11 )
1;"
1:"
1'#
1R
1S
1f"
1y!
#20000
0%
0c"
0v!
0[
0a!
#25000
1%
1c"
1v!
1[
1a!
b1 L
b100 '
b100 )
0;"
0:"
19"
0'#
1&#
b1 ]"
b1 J#
#30000
0%
0c"
0v!
0[
0a!
#35000
1%
1c"
1v!
1[
1a!
b10 L
b110 '
b110 )
1:"
1'#
b10 ]"
b10 J#
#40000
0%
0c"
0v!
0[
0a!
#45000
1%
1c"
1v!
1[
1a!
b11 L
b1000 '
b1001 )
1;"
0:"
09"
18"
0'#
0&#
1%#
b11 ]"
b11 J#
#50000
0%
0c"
0v!
0[
0a!
#55000
1%
1c"
1v!
1[
1a!
b100 L
b1010 '
b1010 )
0;"
1:"
1'#
b100 ]"
b100 J#
#60000
0%
0c"
0v!
0[
0a!
#65000
1%
1c"
1v!
1[
1a!
b101 L
b1100 '
b1100 )
0:"
19"
0'#
1&#
b101 ]"
b101 J#
#70000
0%
0c"
0v!
0[
0a!
#75000
1%
1c"
1v!
1[
1a!
b110 L
b1110 '
b1111 )
1;"
1:"
1'#
b110 ]"
b110 J#
#80000
0%
0c"
0v!
0[
0a!
#85000
1%
1c"
1v!
1[
1a!
b111 L
b10000 '
b10000 )
0;"
0:"
09"
08"
17"
0'#
0&#
0%#
1$#
b111 ]"
b111 J#
#90000
0%
0c"
0v!
0[
0a!
#95000
1%
1c"
1v!
1[
1a!
b1000 L
b10010 '
b10010 )
1:"
1'#
b1000 ]"
b1000 J#
#100000
0%
0c"
0v!
0[
0a!
#105000
1%
1c"
1v!
1[
1a!
b1001 L
b10100 '
b10101 )
1;"
0:"
19"
0'#
1&#
b1001 ]"
b1001 J#
#110000
0%
0c"
0v!
0[
0a!
#115000
1%
1c"
1v!
1[
1a!
b1010 L
b10110 '
b10110 )
0;"
1:"
1'#
b1010 ]"
b1010 J#
#120000
0%
0c"
0v!
0[
0a!
#125000
1%
1c"
1v!
1[
1a!
b1011 L
b11000 '
b11000 )
0:"
09"
18"
0'#
0&#
1%#
b1011 ]"
b1011 J#
#130000
0%
0c"
0v!
0[
0a!
#135000
1%
1c"
1v!
1[
1a!
b1100 L
b11010 '
b11011 )
1;"
1:"
1'#
b1100 ]"
b1100 J#
#140000
0%
0c"
0v!
0[
0a!
#145000
1%
1c"
1v!
1[
1a!
b1101 L
b11100 '
b11100 )
0;"
0:"
19"
0'#
1&#
b1101 ]"
b1101 J#
#150000
0%
0c"
0v!
0[
0a!
#155000
1%
1c"
1v!
1[
1a!
b1110 L
b11110 '
b11110 )
1:"
1'#
b1110 ]"
b1110 J#
#160000
0%
0c"
0v!
0[
0a!
#165000
1%
1c"
1v!
1[
1a!
b1111 L
b100000 '
b100001 )
1;"
0:"
09"
08"
07"
16"
0'#
0&#
0%#
0$#
1##
b1111 ]"
b1111 J#
#170000
0%
0c"
0v!
0[
0a!
#175000
1%
1c"
1v!
1[
1a!
b10000 L
b100010 '
b100010 )
0;"
1:"
1'#
b10000 ]"
b10000 J#
#180000
0%
0c"
0v!
0[
0a!
#185000
1%
1c"
1v!
1[
1a!
b10001 L
b100100 '
b100100 )
0:"
19"
0'#
1&#
b10001 ]"
b10001 J#
#190000
0%
0c"
0v!
0[
0a!
#195000
1%
1c"
1v!
1[
1a!
b10010 L
b100110 '
b100111 )
1;"
1:"
1'#
b10010 ]"
b10010 J#
#200000
0%
0c"
0v!
0[
0a!
#205000
1%
1c"
1v!
1[
1a!
b10011 L
b101000 '
b101000 )
0;"
0:"
09"
18"
0'#
0&#
1%#
b10011 ]"
b10011 J#
#210000
0%
0c"
0v!
0[
0a!
#215000
1%
1c"
1v!
1[
1a!
b10100 L
b10100 ]"
0^"
1_"
b10100 J#
0K#
1L#
0R
0S
1K
0U
1\"
0V
1I#
0f"
0y!
1B!
1@!
1P
1x!
#220000
0%
0c"
0v!
0[
0a!
#225000
1%
1c"
1v!
1[
1a!
1V!
b11 `"
b10011 ]"
1j!
1["
1Z"
b11 *
1|
1{
#230000
0%
0c"
0v!
0[
0a!
#235000
1%
1c"
1v!
1[
1a!
b1 q!
b100 `"
b10010 ]"
0m!
0["
0Z"
1Y"
b100 *
0|
0{
1z
#240000
0%
0c"
0v!
0[
0a!
#245000
1%
1c"
1v!
1[
1a!
b10 q!
b110 `"
b10001 ]"
1l!
1Z"
b110 *
1T!
1{
0@!
1@!
b1 ]!
1S!
1A!
0@!
1[!
1c!
1Q
0P
1i!
1e"
0x!
#250000
0%
0c"
0v!
0[
0a!
#255000
1%
1c"
1v!
1[
1a!
b11 q!
b10 p!
0V!
b1 \!
b10 M#
b10011 J#
0l!
b11 k!
b0 d!
0j!
1G#
b10 (
b0 H!
b11 O!
0T!
b0 L!
b0 M!
1=!
0A!
1P!
0R!
b10 G!
b1 Z!
b10 ]!
1@!
1P
b1 N!
b1 K!
0Q
b1 `!
1x!
0e"
#260000
0%
0c"
0v!
0[
0a!
#265000
1%
1c"
1v!
1[
1a!
b1 p!
1V!
b10 \!
b1 F!
b1001 `"
b10000 ]"
b100 k!
b1 d!
1j!
1["
0Z"
0Y"
1X"
b1001 *
b1 H!
b100 O!
b10 N!
b1 L!
1|
0{
0z
1y
b1 M!
b11 K!
b11 `!
0@!
1W!
b1 Y!
b1 X!
b0 Z!
b1 ]!
1A!
1Q
0P
1n!
1e"
0x!
#270000
0%
0c"
0v!
0[
0a!
#275000
1%
1c"
1v!
1[
1a!
b100 q!
b0 p!
b11 p!
0V!
b1 \!
b1 D!
b1 E!
b0 F!
b100 M#
b10010 J#
1o!
b11 k!
b11 d!
0j!
0G#
1F#
b100 (
b11 H!
b11 O!
b1 N!
b11 L!
b11 M!
b100 K!
b100 `!
0=!
1<!
0A!
0W!
b100 G!
b1 Z!
b10 ]!
0Q
0n!
0e"
#280000
0%
0c"
0v!
0[
0a!
#285000
1%
1c"
1v!
1[
1a!
b10 p!
b10 \!
b1 F!
b100 k!
b100 d!
b100 H!
b100 O!
b0 N!
b100 L!
b100 M!
b10 Z!
#290000
0%
0c"
0v!
0[
0a!
#295000
1%
1c"
1v!
1[
1a!
b1 p!
b10 F!
b110 k!
b110 O!
b10 N!
b110 K!
b110 `!
1W!
b10 Y!
b10 X!
b0 Z!
b1 ]!
1A!
1Q
1n!
1e"
#300000
0%
0c"
0v!
0[
0a!
#305000
1%
1c"
1v!
1[
1a!
b0 p!
b11 p!
b1 \!
b10 D!
b10 E!
b0 F!
b110 M#
b10001 J#
b11 k!
b110 d!
1G#
b110 (
b110 H!
b11 O!
b1 N!
b110 L!
b110 M!
b111 K!
b111 `!
1=!
0A!
0W!
b110 G!
b1 Z!
b10 ]!
1@!
1P
b11 N!
0Q
0n!
b1001 K!
1x!
0e"
b1001 `!
#310000
0%
0c"
0v!
0[
0a!
#315000
1%
1c"
1v!
1[
1a!
b10 p!
1V!
b10 \!
b1 F!
b1010 `"
b1111 ]"
b100 k!
b1001 d!
1j!
0["
1Z"
b1010 *
b1001 H!
b100 O!
b10 N!
b1001 L!
0|
1{
b1001 M!
b1011 K!
b1011 `!
0@!
b10 Z!
0P
0x!
#320000
0%
0c"
0v!
0[
0a!
#325000
1%
1c"
1v!
1[
1a!
1r!
b1 p!
0V!
b10 F!
b110 k!
b1011 d!
b0 e!
0j!
b0 I!
b1011 H!
b110 O!
b0 N!
b0 L!
b0 M!
b0 K!
b0 `!
b11 Z!
#330000
0%
0c"
0v!
0[
0a!
#335000
1%
1c"
1v!
1[
1a!
0r!
1s!
b0 p!
b11 F!
b1001 k!
b0 d!
b1 e!
b0 f!
b0 J!
b1 I!
b0 H!
b1001 O!
b11 N!
b11 K!
b11 `!
1W!
b11 Y!
b11 X!
b0 Z!
b1 ]!
1A!
1Q
1n!
1e"
#340000
0%
0c"
0v!
0[
0a!
#345000
1%
1c"
1v!
1[
1a!
0s!
b111 p!
b11 p!
b1 \!
b11 D!
b11 E!
b0 F!
b1000 M#
b10000 J#
b100 k!
b11 d!
b11 e!
b1 f!
0G#
0F#
1E#
b1000 (
b1 J!
b11 I!
b11 H!
b100 O!
b10 N!
b11 L!
b1 M!
0=!
0<!
1;!
0A!
0W!
b1000 G!
b1 Z!
b10 ]!
1@!
1P
b100 N!
0Q
0n!
b101 K!
1x!
0e"
b101 `!
#350000
0%
0c"
0v!
0[
0a!
#355000
1%
1c"
1v!
1[
1a!
b10 p!
1V!
b10 \!
b1 F!
b1100 `"
b1110 ]"
b110 k!
b101 d!
b100 e!
b11 f!
1j!
0Z"
1Y"
b1100 *
b11 J!
b100 I!
b101 H!
b110 O!
b10 N!
b100 L!
b11 M!
0{
1z
0@!
b10 Z!
0P
0x!
#360000
0%
0c"
0v!
0[
0a!
#365000
1%
1c"
1v!
1[
1a!
1r!
b1 p!
0V!
b10 F!
b1001 k!
b100 f!
0j!
b100 J!
b1001 O!
b1 N!
b100 M!
b11 Z!
#370000
0%
0c"
0v!
0[
0a!
#375000
1%
1c"
1v!
1[
1a!
0r!
1s!
b0 p!
b11 F!
b1010 k!
b110 e!
b110 I!
b1010 O!
b10 N!
b101 L!
b110 K!
b110 `!
b100 Y!
b100 X!
b0 Z!
b1 ]!
1A!
1Q
1e"
#380000
0%
0c"
0v!
0[
0a!
#385000
1%
1c"
1v!
1[
1a!
0s!
b111 p!
b11 p!
b1 \!
b100 D!
b100 E!
b0 F!
b1010 M#
b1111 J#
b110 k!
b110 d!
b1001 e!
b110 f!
1G#
b1010 (
b110 J!
b1001 I!
b110 H!
b110 O!
b110 L!
b110 M!
b1000 K!
b1000 `!
1=!
0A!
b1010 G!
b1 Z!
b10 ]!
1@!
1P
b100 N!
0Q
b1010 K!
1x!
0e"
b1010 `!
#390000
0%
0c"
0v!
0[
0a!
#395000
1%
1c"
1v!
1[
1a!
b10 p!
1V!
b10 \!
b1 F!
b1111 `"
b1101 ]"
b1001 k!
b1010 d!
b1011 e!
b1001 f!
1j!
1["
1Z"
b1111 *
b1001 J!
b1011 I!
b1010 H!
b1001 O!
b1 N!
b1010 L!
b1001 M!
1|
1{
0@!
b10 Z!
0P
0x!
#400000
0%
0c"
0v!
0[
0a!
#405000
1%
1c"
1v!
1[
1a!
1r!
b1 p!
0V!
b10 F!
b1010 k!
b0 e!
b1011 f!
0j!
b1011 J!
b0 I!
b1010 O!
b0 N!
b0 L!
b0 M!
b0 K!
b0 `!
b11 Z!
#410000
0%
0c"
0v!
0[
0a!
#415000
1%
1c"
1v!
1[
1a!
0r!
1s!
b0 p!
b11 F!
b1100 k!
b0 d!
b11 e!
b0 f!
b0 J!
b11 I!
b0 H!
b1100 O!
b10 N!
b10 K!
b10 `!
b101 Y!
b101 X!
b0 Z!
b1 ]!
1A!
1Q
1e"
#420000
0%
0c"
0v!
0[
0a!
#425000
1%
1c"
1v!
1[
1a!
0s!
b111 p!
b11 p!
b1 \!
b101 D!
b101 E!
b0 F!
b1100 M#
b1110 J#
b1001 k!
b10 d!
b101 e!
b11 f!
0G#
1F#
b1100 (
b11 J!
b101 I!
b10 H!
b1001 O!
b1 N!
b10 L!
b10 M!
b11 K!
b11 `!
0=!
1<!
0A!
b1100 G!
b1 Z!
b10 ]!
1@!
1P
b11 N!
0Q
b101 K!
1x!
0e"
b101 `!
#430000
0%
0c"
0v!
0[
0a!
#435000
1%
1c"
1v!
1[
1a!
b10 p!
1V!
b10 \!
b1 F!
b10000 `"
b1100 ]"
b1010 k!
b101 d!
b101 f!
1j!
0["
0Z"
0Y"
0X"
1W"
b10000 *
b101 J!
b101 H!
b1010 O!
b10 N!
b101 L!
b101 M!
0|
0{
0z
0y
1x
b111 K!
b111 `!
0@!
b10 Z!
0P
0x!
#440000
0%
0c"
0v!
0[
0a!
#445000
1%
1c"
1v!
1[
1a!
1r!
b1 p!
0V!
b10 F!
b1100 k!
b111 d!
0j!
b111 H!
b1100 O!
b0 N!
b101 K!
b101 `!
b11 Z!
#450000
0%
0c"
0v!
0[
0a!
#455000
1%
1c"
1v!
1[
1a!
0r!
1s!
b0 p!
b11 F!
b1111 k!
b101 d!
b110 e!
b110 I!
b101 H!
b1111 O!
b11 N!
b1000 K!
b1000 `!
b110 Y!
b110 X!
b0 Z!
b1 ]!
1A!
1Q
1e"
#460000
0%
0c"
0v!
0[
0a!
#465000
1%
1c"
1v!
1[
1a!
0s!
b111 p!
b11 p!
b1 \!
b110 D!
b110 E!
b0 F!
b1110 M#
b1101 J#
b1010 k!
b1000 d!
b1010 e!
b110 f!
1G#
b1110 (
b110 J!
b1010 I!
b1000 H!
b1010 O!
b10 N!
b1000 L!
b110 M!
1=!
0A!
b1110 G!
b1 Z!
b10 ]!
1@!
1P
b100 N!
0Q
b1010 K!
1x!
0e"
b1010 `!
#470000
0%
0c"
0v!
0[
0a!
#475000
1%
1c"
1v!
1[
1a!
b10 p!
1V!
b10 \!
b1 F!
b10010 `"
b1011 ]"
b1100 k!
b1010 d!
b1010 f!
1j!
1Z"
b10010 *
b1010 J!
b1010 H!
b1100 O!
b10 N!
b1010 L!
b1010 M!
1{
b1100 K!
b1100 `!
0@!
b10 Z!
0P
0x!
#480000
0%
0c"
0v!
0[
0a!
#485000
1%
1c"
1v!
1[
1a!
1r!
b1 p!
0V!
b10 F!
b1111 k!
b1100 d!
b0 e!
0j!
b0 I!
b1100 H!
b1111 O!
b1 N!
b0 L!
b0 M!
b1 K!
b1 `!
b11 Z!
#490000
0%
0c"
0v!
0[
0a!
#495000
1%
1c"
1v!
1[
1a!
0r!
1s!
b0 p!
b11 F!
b10000 k!
b1 d!
b10 e!
b0 f!
b0 J!
b10 I!
b1 H!
b10000 O!
b10 N!
b1 L!
b10 K!
b10 `!
b111 Y!
b111 X!
b0 Z!
b1 ]!
1A!
1Q
1e"
#500000
0%
0c"
0v!
0[
0a!
